<?xml version="1.0" encoding="utf-8"?>
<!-- Generator: Adobe Illustrator 19.2.0, SVG Export Plug-In . SVG Version: 6.00 Build 0)  -->
<svg version="1.1" id="svg" xmlns="http://www.w3.org/2000/svg" xmlns:xlink="http://www.w3.org/1999/xlink" x="0px" y="0px"
	 viewBox="0 0 250 250" style="enable-background:new 0 0 250 250;" xml:space="preserve">
<style type="text/css">
	.st0{fill:#464841;}
	.st1{fill:none;stroke:#B4BAAE;stroke-miterlimit:10;}
	.st2{enable-background:new    ;}
</style>
<g>
	<path class="st0" d="M19.1,128.1c0.3,1.2,1.2,1.8,2.5,1.8s2.1-0.8,2.1-1.9c0-1.3-1-1.6-2.3-2.2c-2.3-1.1-3.6-2-3.6-4
		c0-2.1,1.6-3.6,3.9-3.6c1.9,0,3.3,0.8,3.8,2.2l-1.7,0.9c-0.5-0.8-1.1-1.2-1.9-1.2c-1.2,0-1.9,0.7-1.9,1.6c0,1.3,1,1.6,2.5,2.3
		c2.3,1.1,3.4,2,3.4,3.9c0,2.4-1.6,4-4.3,4c-2.2,0-3.7-1.1-4.1-3L19.1,128.1z"/>
	<path class="st0" d="M32.4,131.6h-2.1v-11.3h-3.5v-1.8h9v1.8h-3.5L32.4,131.6L32.4,131.6z"/>
	<path class="st0" d="M43.2,128.2H38l-1.5,3.4h-2.2l6.3-13.6l6.3,13.6h-2.2L43.2,128.2z M42.5,126.5l-1.3-3
		c-0.1-0.3-0.3-0.8-0.5-1.5c-0.2,0.7-0.3,1.1-0.5,1.5l-1.3,3H42.5z"/>
	<path class="st0" d="M60.3,124.8c0,0.5,0,0.9,0,1.2c0,3.7-2.2,5.8-6,5.8c-2.1,0-3.8-0.6-5.1-1.9c-1.2-1.3-1.9-3-1.9-5
		s0.7-3.7,2-4.9s3-1.9,5-1.9c2.1,0,3.7,0.7,4.9,2.3l-1.6,1.2c-0.9-1-2-1.5-3.3-1.5c-2.8,0-4.8,2-4.8,4.9c0,3,2,5,4.8,5
		c2.4,0,3.9-1.2,3.9-3.2c0-0.1,0-0.1,0-0.2h-3.1v-1.8H60.3L60.3,124.8z"/>
	<path class="st0" d="M62.5,118.6h7.3v1.8h-5.2v3.3h5.2v1.9h-5.2v4.2h5.2v1.9h-7.3C62.5,131.7,62.5,118.6,62.5,118.6z"/>
	<polygon class="st0" points="11.4,131.6 0,125 11.4,118.3 	"/>
</g>
<path class="st0" d="M112,241.2h-2.6l-0.8,1.7h-1.1l3.2-6.8l3.2,6.8h-1.1L112,241.2z M111.6,240.3l-0.7-1.5
	c-0.1-0.2-0.2-0.4-0.2-0.7c-0.1,0.3-0.2,0.6-0.2,0.7l-0.7,1.5H111.6z"/>
<path class="st0" d="M143.8,235.4h1.7c0.7,0,1.2,0,1.6,0.3c0.4,0.3,0.7,0.8,0.7,1.4c0,0.7-0.3,1.2-1,1.4c0.8,0.1,1.2,0.7,1.2,1.6
	c0,0.5-0.2,1.1-0.5,1.4c-0.5,0.5-1.1,0.5-2,0.5h-1.7C143.8,242,143.8,235.4,143.8,235.4z M145.2,238.2c1,0,1.4-0.2,1.4-0.9
	c0-0.8-0.5-1-1.4-1h-0.4v1.9H145.2z M145.2,241.2c0.6,0,1,0,1.3-0.2s0.4-0.5,0.4-0.8c0-0.4-0.2-0.7-0.5-0.9
	c-0.3-0.1-0.5-0.1-0.9-0.1c-0.1,0-0.2,0-0.3,0h-0.4v2.1L145.2,241.2L145.2,241.2z"/>
<path class="st0" d="M216.9,168.2c-1.5,0-2.5,1-2.5,2.5s1,2.5,2.3,2.5c0.8,0,1.5-0.3,2.2-0.8v1.2c-0.6,0.4-1.3,0.6-2.1,0.6
	c-1,0-1.9-0.3-2.6-1c-0.7-0.6-1-1.5-1-2.5s0.4-1.9,1-2.5c0.7-0.7,1.5-1,2.5-1c0.8,0,1.5,0.2,2.2,0.7l-0.1,1.1
	C218.3,168.5,217.6,168.2,216.9,168.2z"/>
<path class="st0" d="M163.6,3.4h-1.7l-0.5,1.1h-0.7l2.1-4.5l2.1,4.5h-0.7L163.6,3.4z M163.3,2.8l-0.5-1c-0.1-0.1-0.1-0.3-0.1-0.5
	c-0.1,0.2-0.1,0.4-0.1,0.5l-0.5,1H163.3z"/>
<path class="st0" d="M186.8,0.4h1.7c0.7,0,1.2,0,1.6,0.3c0.4,0.3,0.7,0.8,0.7,1.4c0,0.7-0.3,1.2-1,1.4c0.8,0.1,1.2,0.7,1.2,1.6
	c0,0.5-0.2,1.1-0.5,1.4C190,7,189.4,7,188.5,7h-1.7V0.4z M188.2,3.2c1,0,1.4-0.2,1.4-0.9c0-0.8-0.5-1-1.4-1h-0.4v1.9
	C187.8,3.2,188.2,3.2,188.2,3.2z M188.2,6.2c0.6,0,1,0,1.3-0.2s0.4-0.5,0.4-0.8c0-0.4-0.2-0.7-0.5-0.9c-0.3-0.1-0.5-0.1-0.9-0.1
	c-0.1,0-0.2,0-0.3,0h-0.4v2.1L188.2,6.2L188.2,6.2z"/>
<path class="st0" d="M216.9,1c-1.5,0-2.5,1-2.5,2.5s1,2.5,2.3,2.5c0.8,0,1.5-0.3,2.2-0.8v1.2c-0.6,0.4-1.3,0.6-2.1,0.6
	c-1,0-1.9-0.3-2.6-1c-0.7-0.6-1-1.5-1-2.5s0.4-1.9,1-2.5c0.7-0.7,1.5-1,2.5-1c0.8,0,1.5,0.2,2.2,0.7l-0.1,1.1
	C218.3,1.3,217.6,1,216.9,1z"/>
<path class="st1" d="M145.1,0v139.5c0,1.2-0.2,2.4-0.5,3.5l-2.1,6.9c-0.3,0.9-0.6,1.7-1.1,2.5L85,250"/>
<g class="st2">
	<path d="M177.8,242.2c0.2,0.6,0.6,0.9,1.3,0.9s1.1-0.4,1.1-1c0-0.7-0.5-0.8-1.2-1.1c-1.2-0.6-1.8-1-1.8-2c0-1.1,0.8-1.8,2-1.8
		c1,0,1.7,0.4,1.9,1.1l-0.8,0.4c-0.3-0.4-0.6-0.6-1-0.6c-0.6,0-1,0.3-1,0.8c0,0.6,0.5,0.8,1.3,1.2c1.2,0.5,1.7,1,1.7,2
		c0,1.2-0.8,2.1-2.2,2.1c-1.1,0-1.9-0.5-2.1-1.5L177.8,242.2z"/>
</g>
</svg>
