<?xml version="1.0" encoding="utf-8"?>
<!-- Generator: Adobe Illustrator 19.2.0, SVG Export Plug-In . SVG Version: 6.00 Build 0)  -->
<svg version="1.1" id="svg" xmlns="http://www.w3.org/2000/svg" xmlns:xlink="http://www.w3.org/1999/xlink" x="0px" y="0px"
	 viewBox="0 0 250 250" style="enable-background:new 0 0 250 250;" xml:space="preserve">
<style type="text/css">
	.st0{fill:#464841;}
	.st1{fill:none;stroke:#B4BAAE;stroke-miterlimit:10;}
</style>
<g>
	<path class="st0" d="M182.1,246.3c0.3,1.2,1.2,1.8,2.5,1.8s2.1-0.8,2.1-1.9c0-1.3-1-1.6-2.3-2.2c-2.3-1.1-3.6-2-3.6-4
		c0-2.1,1.6-3.6,3.9-3.6c1.9,0,3.3,0.8,3.8,2.2l-1.7,0.9c-0.5-0.8-1.1-1.2-1.9-1.2c-1.2,0-1.9,0.7-1.9,1.6c0,1.3,1,1.6,2.5,2.3
		c2.3,1.1,3.4,2,3.4,3.9c0,2.4-1.6,4-4.3,4c-2.2,0-3.7-1.1-4.1-3L182.1,246.3z"/>
	<path class="st0" d="M195.4,249.7h-2.1v-11.3h-3.5v-1.8h9v1.8h-3.5v11.3H195.4z"/>
	<path class="st0" d="M206.2,246.3H201l-1.5,3.4h-2.2l6.3-13.6l6.3,13.6h-2.2L206.2,246.3z M205.5,244.5l-1.3-3
		c-0.1-0.3-0.3-0.8-0.5-1.5c-0.2,0.7-0.3,1.1-0.5,1.5l-1.3,3H205.5z"/>
	<path class="st0" d="M223.3,243c0,0.5,0,0.9,0,1.2c0,3.7-2.2,5.8-6,5.8c-2.1,0-3.8-0.6-5.1-1.9c-1.2-1.3-1.9-3-1.9-5s0.7-3.7,2-4.9
		s3-1.9,5-1.9c2.1,0,3.7,0.7,4.9,2.3l-1.6,1.2c-0.9-1-2-1.5-3.3-1.5c-2.8,0-4.8,2-4.8,4.9c0,3,2,5,4.8,5c2.4,0,3.9-1.2,3.9-3.2
		c0-0.1,0-0.1,0-0.2h-3.1V243H223.3z"/>
	<path class="st0" d="M225.5,236.6h7.3v1.8h-5.2v3.3h5.2v1.9h-5.2v4.2h5.2v1.9h-7.3V236.6z"/>
	<polygon class="st0" points="245.5,236 245.6,249 236.3,239.8 	"/>
</g>
<path class="st1" d="M250.5,48.6c-117.1,0-155.7,92-167.6,137.4c-3.3,12.6-4.9,25.5-4.9,38.5v25.2"/>
<path class="st0" d="M21.6,144h1.7c0.7,0,1.2,0,1.6,0.3s0.7,0.8,0.7,1.4c0,0.7-0.3,1.2-1,1.4c0.8,0.1,1.2,0.7,1.2,1.6
	c0,0.5-0.2,1.1-0.5,1.4c-0.5,0.5-1.1,0.5-2,0.5h-1.7C21.6,150.6,21.6,144,21.6,144z M23.1,146.8c1,0,1.4-0.2,1.4-0.9
	c0-0.8-0.5-1-1.4-1h-0.4v1.9H23.1z M23,149.8c0.6,0,1,0,1.3-0.2s0.4-0.5,0.4-0.8c0-0.4-0.2-0.7-0.5-0.9c-0.3-0.1-0.5-0.1-0.9-0.1
	c-0.1,0-0.2,0-0.3,0h-0.4v2.1H23V149.8z"/>
<path class="st0" d="M46.8,173.5h-2.6l-0.8,1.7h-1.1l3.2-6.8l3.2,6.8h-1.1L46.8,173.5z M46.4,172.6l-0.7-1.5
	c-0.1-0.2-0.2-0.4-0.2-0.7c-0.1,0.3-0.2,0.6-0.2,0.7l-0.7,1.5H46.4z"/>
<path class="st0" d="M156.6,1h1.7c0.7,0,1.2,0,1.6,0.3s0.7,0.8,0.7,1.4c0,0.7-0.3,1.2-1,1.4c0.8,0.1,1.2,0.7,1.2,1.6
	c0,0.5-0.2,1.1-0.5,1.4c-0.5,0.5-1.1,0.5-2,0.5h-1.7V1L156.6,1z M158.1,3.8c1,0,1.4-0.2,1.4-0.9c0-0.8-0.5-1-1.4-1h-0.4v1.9
	C157.7,3.8,158.1,3.8,158.1,3.8z M158,6.8c0.6,0,1,0,1.3-0.2s0.4-0.5,0.4-0.8c0-0.4-0.2-0.7-0.5-0.9c-0.3-0.1-0.5-0.1-0.9-0.1
	c-0.1,0-0.2,0-0.3,0h-0.4v2.1L158,6.8L158,6.8z"/>
<path class="st0" d="M177.8,30.5h-2.6l-0.8,1.7h-1.1l3.2-6.8l3.2,6.8h-1.1L177.8,30.5z M177.4,29.6l-0.7-1.5
	c-0.1-0.2-0.2-0.4-0.2-0.7c-0.1,0.3-0.2,0.6-0.2,0.7l-0.7,1.5H177.4z"/>
</svg>
